module SenML_CV2

go 1.15

require (
	github.com/eclipse/paho.mqtt.golang v1.3.2
	github.com/golang/glog v0.0.0-20160126235308-23def4e6c14b
	github.com/silkeh/senml v0.0.0-20210225180226-d67cf039d26c

)
